<?xml version="1.0" encoding="utf-8"?>
<!-- Generator: Adobe Illustrator 15.0.0, SVG Export Plug-In . SVG Version: 6.00 Build 0)  -->
<!DOCTYPE svg PUBLIC "-//W3C//DTD SVG 1.1//EN" "http://www.w3.org/Graphics/SVG/1.1/DTD/svg11.dtd">
<svg version="1.1" id="Layer_1" xmlns="http://www.w3.org/2000/svg" xmlns:xlink="http://www.w3.org/1999/xlink" x="0px" y="0px"
	 width="400px" height="110px" viewBox="0 0 400 110" enable-background="new 0 0 400 110" xml:space="preserve">
<g>
	<path fill="#FFFFFF" d="M367.52,104.505c-4.572,0-8.814-0.758-12.731-2.284c-3.925-1.519-7.317-3.688-10.162-6.509
		c-2.859-2.81-5.083-6.144-6.684-9.986c-1.599-3.846-2.398-8.128-2.398-12.854v-0.225c0-4.34,0.739-8.453,2.227-12.332
		c1.483-3.882,3.557-7.271,6.227-10.16c2.655-2.89,5.84-5.18,9.536-6.851c3.688-1.68,7.781-2.513,12.274-2.513
		c5.093,0,9.511,0.91,13.25,2.738c3.728,1.826,6.83,4.281,9.311,7.368c2.466,3.077,4.285,6.619,5.473,10.615
		c1.183,3.995,1.772,8.167,1.772,12.506c0,0.687-0.032,1.412-0.061,2.17c-0.047,0.758-0.093,1.562-0.172,2.395h-42.599
		c0.844,3.96,2.577,6.948,5.201,8.965c2.63,2.02,5.879,3.027,9.758,3.027c2.902,0,5.486-0.493,7.771-1.483
		c2.287-0.99,4.646-2.588,7.077-4.797l9.933,8.793c-2.885,3.577-6.398,6.376-10.498,8.393
		C377.913,103.497,373.066,104.505,367.52,104.505z M378.703,67.736c-0.529-3.882-1.895-7.021-4.104-9.419
		c-2.212-2.402-5.14-3.597-8.792-3.597c-3.657,0-6.609,1.184-8.851,3.54c-2.248,2.362-3.71,5.522-4.396,9.476H378.703z"/>
	<path fill="#FFFFFF" d="M49.216,103.554V71.367c0-7.095-5.646-12.609-12.74-12.609c-6.831,0-12.746,5.647-12.746,12.609v32.187
		H7.309V7.124h16.421v40.595c4.073-4.071,8.406-5.519,12.746-5.519c7.881,0,15.233,3.024,20.758,8.41
		c5.513,5.649,8.531,13.005,8.531,20.757v32.187H49.216z"/>
	<path fill="#FFFFFF" d="M89.325,97.117c-5.392-5.122-8.28-12.085-8.28-19.577V43.382h16.549V77.54
		c0,6.177,5.126,11.17,11.565,11.17c6.44,0,11.693-4.993,11.693-11.17V43.382h16.552V77.54c0,7.359-3.023,14.322-8.408,19.577
		c-5.258,5.122-12.221,7.877-19.837,7.877C101.54,104.994,94.443,102.239,89.325,97.117z"/>
	<path fill="#FFFFFF" d="M170.056,99.483l-0.646-0.654v4.725h-15.9V7.124h15.9v41.519l0.646-0.528
		c4.338-3.942,9.333-5.914,14.848-5.914c8.409,0,16.293,3.152,22.201,9.066c5.912,6.042,9.196,13.928,9.196,22.203
		c0,8.274-3.284,16.159-9.196,22.203c-6.04,5.912-13.921,9.068-22.201,9.068C180.181,104.741,174.79,104.083,170.056,99.483z
		 M184.903,89.368c8.409,0,15.504-7.231,15.504-15.898c0-8.539-7.095-15.895-15.504-15.895c-8.41,0-15.494,7.355-15.494,15.895
		C169.409,82.137,176.493,89.368,184.903,89.368z"/>
	<path fill="#FFFFFF" d="M245.868,99.483l-0.658-0.654v4.725h-15.901V7.124h15.901v41.519l0.658-0.528
		c4.335-3.942,9.325-5.914,14.844-5.914c8.403,0,16.292,3.152,22.2,9.066c5.912,6.042,9.196,13.928,9.196,22.203
		c0,8.274-3.284,16.159-9.196,22.203c-6.044,5.912-13.926,9.068-22.2,9.068C255.983,104.741,250.597,104.083,245.868,99.483z
		 M260.712,89.368c8.403,0,15.502-7.231,15.502-15.898c0-8.539-7.099-15.895-15.502-15.895c-8.41,0-15.502,7.355-15.502,15.895
		C245.21,82.137,252.302,89.368,260.712,89.368z"/>
	<path fill="#FFFFFF" d="M305.438,103.554V7.124h17.082v96.43H305.438z"/>
</g>
</svg>
