<?xml version="1.0" encoding="UTF-8"?>
<svg width="26px" height="16px" viewBox="0 0 26 16" version="1.1" xmlns="http://www.w3.org/2000/svg" xmlns:xlink="http://www.w3.org/1999/xlink">
    <!-- Generator: Sketch 54.1 (76490) - https://sketchapp.com -->
    <title>menu</title>
    <desc>Created with Sketch.</desc>
    <g id="Design-iteration-2" stroke="none" stroke-width="1" fill="none" fill-rule="evenodd">
        <g id="Mobile-Home-design-Copy" transform="translate(-270.000000, -18.000000)" fill="#444444" fill-rule="nonzero">
            <g id="Nav">
                <g id="Menu-Copy" transform="translate(20.000000, 11.000000)">
                    <path d="M275.303571,9 L250.696429,9 C250.502976,9 250.338541,8.95833315 250.203125,8.875 C250.067709,8.79166685 250,8.69047601 250,8.57142857 L250,7.42857143 C250,7.30952399 250.067709,7.20833315 250.203125,7.125 C250.338541,7.04166685 250.502976,7 250.696429,7 L275.303571,7 C275.497024,7 275.661459,7.04166685 275.796875,7.125 C275.932291,7.20833315 276,7.30952399 276,7.42857143 L276,8.57142857 C276,8.69047601 275.932291,8.79166685 275.796875,8.875 C275.661459,8.95833315 275.497024,9 275.303571,9 Z M275.303571,16 L250.696429,16 C250.502976,16 250.338541,15.9583332 250.203125,15.875 C250.067709,15.7916668 250,15.690476 250,15.5714286 L250,14.4285714 C250,14.309524 250.067709,14.2083332 250.203125,14.125 C250.338541,14.0416668 250.502976,14 250.696429,14 L275.303571,14 C275.497024,14 275.661459,14.0416668 275.796875,14.125 C275.932291,14.2083332 276,14.309524 276,14.4285714 L276,15.5714286 C276,15.690476 275.932291,15.7916668 275.796875,15.875 C275.661459,15.9583332 275.497024,16 275.303571,16 Z M275.303571,23 L250.696429,23 C250.502976,23 250.338541,22.9583332 250.203125,22.875 C250.067709,22.7916668 250,22.690476 250,22.5714286 L250,21.4285714 C250,21.309524 250.067709,21.2083332 250.203125,21.125 C250.338541,21.0416668 250.502976,21 250.696429,21 L275.303571,21 C275.497024,21 275.661459,21.0416668 275.796875,21.125 C275.932291,21.2083332 276,21.309524 276,21.4285714 L276,22.5714286 C276,22.690476 275.932291,22.7916668 275.796875,22.875 C275.661459,22.9583332 275.497024,23 275.303571,23 Z" id="menu"></path>
                </g>
            </g>
        </g>
    </g>
</svg>